module gitlab.com/dpixel/dp-observer

go 1.20

require (
	github.com/google/uuid v1.3.0
	github.com/stretchr/testify v1.8.2
)

require (
	github.com/davecgh/go-spew v1.1.1 // indirect
	github.com/kr/pretty v0.3.0 // indirect
	github.com/pmezard/go-difflib v1.0.0 // indirect
	github.com/stretchr/objx v0.5.0 // indirect
	gopkg.in/check.v1 v1.0.0-20180628173108-788fd7840127 // indirect
	gopkg.in/yaml.v3 v3.0.1 // indirect
)
